{
  "template" : {
    "mappings" : {
      "properties" : {
        "hostname" : {
          "type" : "text",
          "fields" : {
            "keyword" : {
              "ignore_above" : 256,
              "type" : "keyword"
            }
          }
        },
        "last_updated" : {
          "format" : "epoch_second",
          "type" : "date"
        },
        "port" : {
          "type" : "integer"
        },
        "ce_name" : {
          "type" : "text",
          "fields" : {
            "keyword" : {
              "ignore_above" : 256,
              "type" : "keyword"
            }
          }
        },
        "host" : {
          "type" : "text",
          "fields" : {
            "keyword" : {
              "ignore_above" : 256,
              "type" : "keyword"
            }
          }
        },
        "test_code" : {
          "type" : "integer"
        },
        "addr" : {
          "type" : "ip"
        },
        "test_results" : {
          "properties" : {
            "process_visibility" : {
              "properties" : {
                "USERS_COUNT" : {
                  "type" : "integer"
                },
                "EXECUTION_TIME" : {
                  "type" : "integer"
                },
                "EXITCODE" : {
                  "type" : "integer"
                }
              }
            },
            "wlcg_metapackage" : {
              "properties" : {
                "EXECUTION_TIME" : {
                  "type" : "integer"
                },
                "WCLG_METAPACKAGE" : {
                  "type" : "text",
                  "fields" : {
                    "keyword" : {
                      "ignore_above" : 256,
                      "type" : "keyword"
                    }
                  }
                },
                "EXITCODE" : {
                  "type" : "integer"
                }
              }
            },
            "lhcbmarks" : {
              "properties" : {
                "LHCbMarks" : {
                  "type" : "float"
                },
                "EXECUTION_TIME" : {
                  "type" : "integer"
                },
                "EXITCODE" : {
                  "type" : "integer"
                }
              }
            },
            "ram_info" : {
              "properties" : {
                "RAM_kB_Inactive(file)" : {
                  "type" : "long"
                },
                "RAM_kB_AnonHugePages" : {
                  "type" : "long"
                },
                "RAM_kB_Bounce" : {
                  "type" : "long"
                },
                "RAM_kB_Hugepagesize" : {
                  "type" : "long"
                },
                "RAM_kB_Active(anon)" : {
                  "type" : "long"
                },
                "RAM_kB_SReclaimable" : {
                  "type" : "long"
                },
                "RAM_kB_WritebackTmp" : {
                  "type" : "long"
                },
                "RAM_kB_FileHugePages" : {
                  "type" : "long"
                },
                "RAM_kB_SwapCached" : {
                  "type" : "long"
                },
                "RAM_kB_KReclaimable" : {
                  "type" : "long"
                },
                "RAM_kB_Shmem" : {
                  "type" : "long"
                },
                "RAM_kB_Inactive(anon)" : {
                  "type" : "long"
                },
                "EXECUTION_TIME" : {
                  "type" : "integer"
                },
                "RAM_kB_CmaTotal" : {
                  "type" : "long"
                },
                "RAM_kB_Active(file)" : {
                  "type" : "long"
                },
                "RAM_kB_MemAvailable" : {
                  "type" : "long"
                },
                "RAM_kB_PageTables" : {
                  "type" : "long"
                },
                "RAM_kB_DirectMap2M" : {
                  "type" : "long"
                },
                "RAM_kB_Unevictable" : {
                  "type" : "long"
                },
                "RAM_kB_MemFree" : {
                  "type" : "long"
                },
                "RAM_kB_KernelStack" : {
                  "type" : "long"
                },
                "RAM_kB_Mlocked" : {
                  "type" : "long"
                },
                "RAM_kB_HardwareCorrupted" : {
                  "type" : "long"
                },
                "RAM_kB_NFS_Unstable" : {
                  "type" : "long"
                },
                "RAM_kB_ShmemPmdMapped" : {
                  "type" : "long"
                },
                "RAM_kB_AnonPages" : {
                  "type" : "long"
                },
                "RAM_kB_VmallocChunk" : {
                  "type" : "long"
                },
                "RAM_kB_SwapTotal" : {
                  "type" : "long"
                },
                "EXITCODE" : {
                  "type" : "integer"
                },
                "RAM_kB_Dirty" : {
                  "type" : "long"
                },
                "RAM_kB_SwapFree" : {
                  "type" : "long"
                },
                "RAM_HugePages_Free" : {
                  "type" : "long"
                },
                "RAM_kB_Buffers" : {
                  "type" : "long"
                },
                "RAM_kB_CmaFree" : {
                  "type" : "long"
                },
                "RAM_kB_Cached" : {
                  "type" : "long"
                },
                "RAM_kB_DirectMap1G" : {
                  "type" : "long"
                },
                "RAM_kB_DirectMap4k" : {
                  "type" : "long"
                },
                "RAM_kB_VmallocUsed" : {
                  "type" : "long"
                },
                "RAM_kB_FilePmdMapped" : {
                  "type" : "long"
                },
                "RAM_kB_SUnreclaim" : {
                  "type" : "long"
                },
                "RAM_kB_Hugetlb" : {
                  "type" : "long"
                },
                "RAM_kB_VmallocTotal" : {
                  "type" : "long"
                },
                "RAM_kB_Writeback" : {
                  "type" : "long"
                },
                "RAM_HugePages_Total" : {
                  "type" : "long"
                },
                "RAM_kB_Active" : {
                  "type" : "long"
                },
                "RAM_HugePages_Surp" : {
                  "type" : "long"
                },
                "RAM_kB_Slab" : {
                  "type" : "long"
                },
                "RAM_kB_MemTotal" : {
                  "type" : "long"
                },
                "RAM_kB_Percpu" : {
                  "type" : "long"
                },
                "RAM_kB_Committed_AS" : {
                  "type" : "long"
                },
                "RAM_kB_Inactive" : {
                  "type" : "long"
                },
                "RAM_HugePages_Rsvd" : {
                  "type" : "long"
                },
                "RAM_kB_CommitLimit" : {
                  "type" : "long"
                },
                "RAM_kB_Mapped" : {
                  "type" : "long"
                },
                "RAM_kB_ShmemHugePages" : {
                  "type" : "long"
                }
              }
            },
            "cpu_info" : {
              "properties" : {
                "CPU_bugs" : {
                  "type" : "text",
                  "fields" : {
                    "keyword" : {
                      "ignore_above" : 256,
                      "type" : "keyword"
                    }
                  }
                },
                "CPU_ore_id" : {
                  "type" : "text",
                  "fields" : {
                    "keyword" : {
                      "ignore_above" : 256,
                      "type" : "keyword"
                    }
                  }
                },
                "CPU_ache_alignment" : {
                  "type" : "text",
                  "fields" : {
                    "keyword" : {
                      "ignore_above" : 256,
                      "type" : "keyword"
                    }
                  }
                },
                "CPU_ogomips" : {
                  "type" : "text",
                  "fields" : {
                    "keyword" : {
                      "ignore_above" : 256,
                      "type" : "keyword"
                    }
                  }
                },
                "CPU_nitial_apicid" : {
                  "type" : "text",
                  "fields" : {
                    "keyword" : {
                      "ignore_above" : 256,
                      "type" : "keyword"
                    }
                  }
                },
                "CPU_apicid" : {
                  "type" : "integer"
                },
                "CPU_clflush_size" : {
                  "type" : "integer"
                },
                "CPU_cpu_cores" : {
                  "type" : "integer"
                },
                "CPU_cpu_family" : {
                  "type" : "integer"
                },
                "CPU_lflush_size" : {
                  "type" : "text",
                  "fields" : {
                    "keyword" : {
                      "ignore_above" : 256,
                      "type" : "keyword"
                    }
                  }
                },
                "CPU_wp" : {
                  "type" : "boolean"
                },
                "CPU_power_management" : {
                  "type" : "text",
                  "fields" : {
                    "keyword" : {
                      "ignore_above" : 256,
                      "type" : "keyword"
                    }
                  }
                },
                "EXECUTION_TIME" : {
                  "type" : "integer"
                },
                "CPU_cpuid_level" : {
                  "type" : "integer"
                },
                "CPU_ddress_sizes" : {
                  "type" : "text",
                  "fields" : {
                    "keyword" : {
                      "ignore_above" : 256,
                      "type" : "keyword"
                    }
                  }
                },
                "CPU_picid" : {
                  "type" : "text",
                  "fields" : {
                    "keyword" : {
                      "ignore_above" : 256,
                      "type" : "keyword"
                    }
                  }
                },
                "CPU_lags" : {
                  "type" : "text",
                  "fields" : {
                    "keyword" : {
                      "ignore_above" : 256,
                      "type" : "keyword"
                    }
                  }
                },
                "CPU_ower_management" : {
                  "type" : "text",
                  "fields" : {
                    "keyword" : {
                      "ignore_above" : 256,
                      "type" : "keyword"
                    }
                  }
                },
                "CPU_microcode" : {
                  "type" : "text",
                  "fields" : {
                    "keyword" : {
                      "ignore_above" : 256,
                      "type" : "keyword"
                    }
                  }
                },
                "CPU_cache_alignment" : {
                  "type" : "integer"
                },
                "CPU_processor" : {
                  "type" : "text",
                  "fields" : {
                    "keyword" : {
                      "ignore_above" : 256,
                      "type" : "keyword"
                    }
                  }
                },
                "CPU_stepping" : {
                  "type" : "integer"
                },
                "CPU_cache_size" : {
                  "type" : "text",
                  "fields" : {
                    "keyword" : {
                      "ignore_above" : 256,
                      "type" : "keyword"
                    }
                  }
                },
                "CPU_TLB_size" : {
                  "type" : "text",
                  "fields" : {
                    "keyword" : {
                      "ignore_above" : 256,
                      "type" : "keyword"
                    }
                  }
                },
                "CPU_initial_apicid" : {
                  "type" : "integer"
                },
                "CPU_cpu_MHz" : {
                  "type" : "float"
                },
                "CPU_fpu" : {
                  "type" : "boolean"
                },
                "CPU_address_sizes" : {
                  "type" : "text",
                  "fields" : {
                    "keyword" : {
                      "ignore_above" : 256,
                      "type" : "keyword"
                    }
                  }
                },
                "CPU_p" : {
                  "type" : "boolean"
                },
                "EXITCODE" : {
                  "type" : "integer"
                },
                "CPU_iblings" : {
                  "type" : "text",
                  "fields" : {
                    "keyword" : {
                      "ignore_above" : 256,
                      "type" : "keyword"
                    }
                  }
                },
                "CPU_pu_cores" : {
                  "type" : "text",
                  "fields" : {
                    "keyword" : {
                      "ignore_above" : 256,
                      "type" : "keyword"
                    }
                  }
                },
                "CPU_fpu_exception" : {
                  "type" : "boolean"
                },
                "CPU_puid_level" : {
                  "type" : "text",
                  "fields" : {
                    "keyword" : {
                      "ignore_above" : 256,
                      "type" : "keyword"
                    }
                  }
                },
                "CPU_flags" : {
                  "type" : "text",
                  "fields" : {
                    "keyword" : {
                      "ignore_above" : 256,
                      "type" : "keyword"
                    }
                  }
                },
                "CPU_model_name" : {
                  "type" : "text"
                },
                "CPU_processor_count" : {
                  "type" : "long"
                },
                "CPU_physical_id" : {
                  "type" : "integer"
                },
                "CPU_pu" : {
                  "type" : "boolean"
                },
                "CPU_ache_size" : {
                  "type" : "text",
                  "fields" : {
                    "keyword" : {
                      "ignore_above" : 256,
                      "type" : "keyword"
                    }
                  }
                },
                "CPU_siblings" : {
                  "type" : "integer"
                },
                "CPU_core_id" : {
                  "type" : "integer"
                },
                "CPU_model" : {
                  "type" : "integer"
                },
                "CPU_bogomips" : {
                  "type" : "float"
                },
                "CPU_pu_exception" : {
                  "type" : "boolean"
                },
                "CPU_hysical_id" : {
                  "type" : "text",
                  "fields" : {
                    "keyword" : {
                      "ignore_above" : 256,
                      "type" : "keyword"
                    }
                  }
                },
                "CPU_vendor_id" : {
                  "type" : "text",
                  "fields" : {
                    "keyword" : {
                      "ignore_above" : 256,
                      "type" : "keyword"
                    }
                  }
                }
              }
            },
            "singularity_debug" : {
              "properties" : {
                "SINGULARITY_CHECK_SECCOMP" : {
                  "type" : "text",
                  "fields" : {
                    "keyword" : {
                      "ignore_above" : 256,
                      "type" : "keyword"
                    }
                  }
                },
                "EXECUTION_TIME" : {
                  "type" : "integer"
                },
                "SINGULARITY_CVMFS_DEBUG" : {
                  "type" : "text",
                  "fields" : {
                    "keyword" : {
                      "ignore_above" : 256,
                      "type" : "keyword"
                    }
                  }
                },
                "SINGULARITY_LOCAL_SUPPORTED_BOOL" : {
                  "type" : "boolean"
                },
                "SINGULARITY_LOCAL_DEBUG" : {
                  "type" : "text",
                  "fields" : {
                    "keyword" : {
                      "ignore_above" : 256,
                      "type" : "keyword"
                    }
                  }
                },
                "EXITCODE" : {
                  "type" : "integer"
                },
                "SINGULARITY_CVMFS_SUPPORTED_BOOL" : {
                  "type" : "boolean"
                }
              }
            },
            "gcc_version" : {
              "properties" : {
                "EXECUTION_TIME" : {
                  "type" : "integer"
                },
                "EXITCODE" : {
                  "type" : "integer"
                },
                "GCC_VERSION" : {
                  "type" : "text",
                  "fields" : {
                    "keyword" : {
                      "ignore_above" : 256,
                      "type" : "keyword"
                    }
                  }
                }
              }
            },
            "max_namespaces" : {
              "properties" : {
                "EXECUTION_TIME" : {
                  "type" : "integer"
                },
                "MAX_NAMESPACES" : {
                  "type" : "integer"
                },
                "EXITCODE" : {
                  "type" : "integer"
                }
              }
            },
            "underlay" : {
              "properties" : {
                "UNDERLAY_ENABLED" : {
                  "type" : "text",
                  "fields" : {
                    "keyword" : {
                      "ignore_above" : 256,
                      "type" : "keyword"
                    }
                  }
                },
                "EXECUTION_TIME" : {
                  "type" : "integer"
                },
                "EXITCODE" : {
                  "type" : "integer"
                }
              }
            },
            "cgroups2_checking" : {
              "properties" : {
                "EXECUTION_TIME" : {
                  "type" : "integer"
                },
                "CGROUPSv2_AVAILABLE" : {
                  "type" : "boolean"
                },
                "CGROUPSv2_RUNNING" : {
                  "type" : "boolean"
                },
                "EXITCODE" : {
                  "type" : "integer"
                }
              }
            },
            "taskset_other_processes" : {
              "properties" : {
                "ENTRY_COUNT" : {
                  "type" : "integer"
                },
                "EXECUTION_TIME" : {
                  "type" : "integer"
                },
                "EXITCODE" : {
                  "type" : "integer"
                },
                "ENTRIES" : {
                  "type" : "text"
                },
                "PERCENTAGE_PINNED_CPUS" : {
                    "type" : "float"
                }
              }
            },
            "container_enabled" : {
              "properties" : {
                "SINGULARITY_BINDPATH" : {
                  "type" : "text",
                  "fields" : {
                    "keyword" : {
                      "ignore_above" : 256,
                      "type" : "keyword"
                    }
                  }
                },
                "SINGULARITYENV_PANDA_HOSTNAME" : {
                  "type" : "text",
                  "fields" : {
                    "keyword" : {
                      "ignore_above" : 256,
                      "type" : "keyword"
                    }
                  }
                },
                "SINGULARITY_COMMAND" : {
                  "type" : "text",
                  "fields" : {
                    "keyword" : {
                      "ignore_above" : 256,
                      "type" : "keyword"
                    }
                  }
                },
                "SINGULARITY_BIND" : {
                  "type" : "text",
                  "fields" : {
                    "keyword" : {
                      "ignore_above" : 256,
                      "type" : "keyword"
                    }
                  }
                },
                "EXECUTION_TIME" : {
                  "type" : "integer"
                },
                "SINGULARITY_NAME" : {
                  "type" : "text",
                  "fields" : {
                    "keyword" : {
                      "ignore_above" : 256,
                      "type" : "keyword"
                    }
                  }
                },
                "SINGULARITY_CONTAINER" : {
                  "type" : "text",
                  "fields" : {
                    "keyword" : {
                      "ignore_above" : 256,
                      "type" : "keyword"
                    }
                  }
                },
                "SINGULARITY_ENVIRONMENT" : {
                  "type" : "text",
                  "fields" : {
                    "keyword" : {
                      "ignore_above" : 256,
                      "type" : "keyword"
                    }
                  }
                },
                "SINGULARITYENV_FRONTIER_LOG_FILE" : {
                  "type" : "text",
                  "fields" : {
                    "keyword" : {
                      "ignore_above" : 256,
                      "type" : "keyword"
                    }
                  }
                },
                "EXITCODE" : {
                  "type" : "integer"
                }
              }
            },
            "cpulimit_checking" : {
              "properties" : {
                "ALLOCATED_CPUS" : {
                  "type" : "text",
                  "fields" : {
                    "keyword" : {
                      "ignore_above" : 256,
                      "type" : "keyword"
                    }
                  }
                },
                "EXECUTION_TIME" : {
                  "type" : "integer"
                },
                "ACCOUNTING" : {
                  "type" : "text",
                  "fields" : {
                    "keyword" : {
                      "ignore_above" : 256,
                      "type" : "keyword"
                    }
                  }
                },
                "ACCESS_QUOTA" : {
                  "type" : "text",
                  "fields" : {
                    "keyword" : {
                      "ignore_above" : 256,
                      "type" : "keyword"
                    }
                  }
                },
                "ACCESS_PERIOD" : {
                  "type" : "text",
                  "fields" : {
                    "keyword" : {
                      "ignore_above" : 256,
                      "type" : "keyword"
                    }
                  }
                },
                "EXITCODE" : {
                  "type" : "integer"
                },
                "CGROUP" : {
                  "type" : "text"
                }
              }
            },
            "tmp" : {
              "properties" : {
                "EXECUTION_TIME" : {
                  "type" : "integer"
                },
                "TEMP_DIR" : {
                  "type" : "text",
                  "fields" : {
                    "keyword" : {
                      "ignore_above" : 256,
                      "type" : "keyword"
                    }
                  }
                },
                "EXITCODE" : {
                  "type" : "integer"
                }
              }
            },
            "singularity" : {
              "properties" : {
                "SINGULARITY_CVMFS_SUPPORTED" : {
                  "type" : "boolean"
                },
                "EXECUTION_TIME" : {
                  "type" : "integer"
                },
                "EXITCODE" : {
                  "type" : "integer"
                },
                "SINGULARITY_LOCAL_SUPPORTED" : {
                  "type" : "boolean"
                }
              }
            },
            "taskset_own_process" : {
              "properties" : {
                "TASKSET" : {
                  "type" : "text",
                  "fields" : {
                    "keyword" : {
                      "ignore_above" : 256,
                      "type" : "keyword"
                    }
                  }
                },
                "PERCENTAGE_PINNED" : {
                    "type" : "float"
                } ,
                "USING_PINNING" : {
                    "type" : "integer"
                },
                "EXECUTION_TIME" : {
                  "type" : "integer"
                },
                "EXITCODE" : {
                  "type" : "integer"
                }
              }
            },
            "get_jdl_cores" : {
              "properties" : {
                "ALIEN_JDL_CPUCORES" : {
                  "type" : "integer"
                },
                "EXECUTION_TIME" : {
                  "type" : "integer"
                },
                "EXITCODE" : {
                  "type" : "integer"
                }
              }
            },
            "os" : {
              "properties" : {
                "OS_REDHAT_SUPPORT_PRODUCT" : {
                  "type" : "text",
                  "fields" : {
                    "keyword" : {
                      "ignore_above" : 256,
                      "type" : "keyword"
                    }
                  }
                },
                "OS_SUPPORT_URL" : {
                  "type" : "text",
                  "fields" : {
                    "keyword" : {
                      "ignore_above" : 256,
                      "type" : "keyword"
                    }
                  }
                },
                "OS_REDHAT_BUGZILLA_PRODUCT_VERSION" : {
                  "type" : "text",
                  "fields" : {
                    "keyword" : {
                      "ignore_above" : 256,
                      "type" : "keyword"
                    }
                  }
                },
                "OS_VERSION_ID" : {
                  "type" : "text",
                  "fields" : {
                    "keyword" : {
                      "ignore_above" : 256,
                      "type" : "keyword"
                    }
                  }
                },
                "OS_CPE_NAME" : {
                  "type" : "text",
                  "fields" : {
                    "keyword" : {
                      "ignore_above" : 256,
                      "type" : "keyword"
                    }
                  }
                },
                "OS_NAME" : {
                  "type" : "text",
                  "fields" : {
                    "keyword" : {
                      "ignore_above" : 256,
                      "type" : "keyword"
                    }
                  }
                },
                "OS_HOME_URL" : {
                  "type" : "text",
                  "fields" : {
                    "keyword" : {
                      "ignore_above" : 256,
                      "type" : "keyword"
                    }
                  }
                },
                "OS_PRETTY_NAME" : {
                  "type" : "text",
                  "fields" : {
                    "keyword" : {
                      "ignore_above" : 256,
                      "type" : "keyword"
                    }
                  }
                },
                "EXITCODE" : {
                  "type" : "integer"
                },
                "OS_REDHAT_BUGZILLA_PRODUCT" : {
                  "type" : "text",
                  "fields" : {
                    "keyword" : {
                      "ignore_above" : 256,
                      "type" : "keyword"
                    }
                  }
                },
                "OS_VERSION_CODENAME" : {
                  "type" : "text",
                  "fields" : {
                    "keyword" : {
                      "ignore_above" : 256,
                      "type" : "keyword"
                    }
                  }
                },
                "OS_REDHAT_SUPPORT_PRODUCT_VERSION" : {
                  "type" : "text",
                  "fields" : {
                    "keyword" : {
                      "ignore_above" : 256,
                      "type" : "keyword"
                    }
                  }
                },
                "OS_ID" : {
                  "type" : "text",
                  "fields" : {
                    "keyword" : {
                      "ignore_above" : 256,
                      "type" : "keyword"
                    }
                  }
                },
                "OS_CENTOS_MANTISBT_PROJECT_VERSION" : {
                  "type" : "text",
                  "fields" : {
                    "keyword" : {
                      "ignore_above" : 256,
                      "type" : "keyword"
                    }
                  }
                },
                "OS_VERSION" : {
                  "type" : "text",
                  "fields" : {
                    "keyword" : {
                      "ignore_above" : 256,
                      "type" : "keyword"
                    }
                  }
                },
                "EXECUTION_TIME" : {
                  "type" : "integer"
                },
                "OS_ID_LIKE" : {
                  "type" : "text",
                  "fields" : {
                    "keyword" : {
                      "ignore_above" : 256,
                      "type" : "keyword"
                    }
                  }
                },
                "OS_BUG_REPORT_URL" : {
                  "type" : "text",
                  "fields" : {
                    "keyword" : {
                      "ignore_above" : 256,
                      "type" : "keyword"
                    }
                  }
                },
                "OS_ANSI_COLOR" : {
                  "type" : "text",
                  "fields" : {
                    "keyword" : {
                      "ignore_above" : 256,
                      "type" : "keyword"
                    }
                  }
                },
                "OS_PRIVACY_POLICY_URL" : {
                  "type" : "text",
                  "fields" : {
                    "keyword" : {
                      "ignore_above" : 256,
                      "type" : "keyword"
                    }
                  }
                },
                "OS_CENTOS_MANTISBT_PROJECT" : {
                  "type" : "text",
                  "fields" : {
                    "keyword" : {
                      "ignore_above" : 256,
                      "type" : "keyword"
                    }
                  }
                },
                "OS_UBUNTU_CODENAME" : {
                  "type" : "text",
                  "fields" : {
                    "keyword" : {
                      "ignore_above" : 256,
                      "type" : "keyword"
                    }
                  }
                }
              }
            },
            "overlay" : {
              "properties" : {
                "EXECUTION_TIME" : {
                  "type" : "integer"
                },
                "OVERLAY_ENABLED" : {
                  "type" : "text",
                  "fields" : {
                    "keyword" : {
                      "ignore_above" : 256,
                      "type" : "keyword"
                    }
                  }
                },
                "EXITCODE" : {
                  "type" : "integer"
                }
              }
            },
            "uname" : {
              "properties" : {
                "UNAME" : {
                  "type" : "text"
                }
              }
            },
            "isolcpus_checking" : {
              "properties" : {
                "EXECUTION_TIME" : {
                  "type" : "integer"
                },
                "ISOLATED_CPUS" : {
                  "type" : "text",
                  "fields" : {
                    "keyword" : {
                      "ignore_above" : 256,
                      "type" : "keyword"
                    }
                  }
                },
                "EXITCODE" : {
                  "type" : "integer"
                }
              }
            },
            "cpuset_checking" : {
              "properties" : {
                "CPU_AMOUNT" : {
                  "type" : "integer"
                },
                "CPUSET_CGROUP" : {
                  "type" : "text"
                },
                "CPUSET_ENABLED" : {
                  "type" : "boolean"
                },
                "CPUSET_CPUS" : {
                  "type" : "text",
                  "fields" : {
                    "keyword" : {
                      "ignore_above" : 256,
                      "type" : "keyword"
                    }
                  }
                },
                "EXECUTION_TIME" : {
                  "type" : "integer"
                },
                "EXITCODE" : {
                  "type" : "integer"
                },
                "CPUSET_PREFIX" : {
                  "type" : "text"
                }
              }
            },
            "loop_devices" : {
              "properties" : {
                "shared_loop_devices" : {
                  "type" : "text",
                  "fields" : {
                    "keyword" : {
                      "ignore_above" : 256,
                      "type" : "keyword"
                    }
                  }
                },
                "EXECUTION_TIME" : {
                  "type" : "integer"
                },
                "max_loop_devices" : {
                  "type" : "integer"
                },
                "EXITCODE" : {
                  "type" : "integer"
                }
              }
            },
            "home" : {
              "properties" : {
                "EXECUTION_TIME" : {
                  "type" : "integer"
                },
                "EXITCODE" : {
                  "type" : "integer"
                },
                "HOME" : {
                  "type" : "text",
                  "fields" : {
                    "keyword" : {
                      "ignore_above" : 256,
                      "type" : "keyword"
                    }
                  }
                }
              }
            },
            "cvmfs_version" : {
              "properties" : {
                "CVMFS_VERSION" : {
                  "type" : "integer"
                },
                "EXECUTION_TIME" : {
                  "type" : "integer"
                },
                "EXITCODE" : {
                  "type" : "integer"
                }
              }
            },
            "running_container" : {
              "properties" : {
                "EXECUTION_TIME" : {
                  "type" : "integer"
                },
                "RUNNING_IN" : {
                  "type" : "text",
                  "fields" : {
                    "keyword" : {
                      "ignore_above" : 256,
                      "type" : "keyword"
                    }
                  }
                },
                "EXITCODE" : {
                  "type" : "integer"
                }
              }
            },
            "lsb_release" : {
              "properties" : {
                "LSB_RELEASE" : {
                  "type" : "text",
                  "fields" : {
                    "keyword" : {
                      "ignore_above" : 256,
                      "type" : "keyword"
                    }
                  }
                },
                "EXECUTION_TIME" : {
                  "type" : "integer"
                },
                "EXITCODE" : {
                  "type" : "integer"
                }
              }
            }
          }
        },
        "host_id" : {
          "type" : "long"
        }
      }
    }
  }
}
